…
We would expect that those older teams have played more games than the
newer teams. Let’s create a scatter plot to investigate this hypothesis.

``` r
#Get total games by franchise
c<-get_hockey_data(endpoint="franchise_totals")
c<-c%>%group_by(data.franchiseId)%>%summarise(totalGames=sum(data.gamesPlayed))
c
```

    ## # A tibble: 38 x 2
    ##    data.franchiseId totalGames
    ##               <int>      <int>
    ##  1                1       7490
    ##  2                2          6
    ##  3                3        631
    ##  4                4        150
    ##  5                5       7286
    ##  6                6       7234
    ##  7                7        672
    ##  8                8        802
    ##  9                9        260
    ## 10               10       7022
    ## # … with 28 more rows
…
``` r
#Get goalie data for Carolina Hurricanes franchise
b<-get_hockey_data(endpoint="goalie_records",ID=26)

#Create a column that indicates whether a goalie is a longTimer, meaning they 
#have played more games than the average goalie (within the Canes franchise)
b<-mutate(b,longTimer=(data.gamesPlayed>mean(b$data.gamesPlayed)))
b
```

    ## # A tibble: 38 x 31
    ##    data.id data.activePlay… data.firstName data.franchiseId data.franchiseN…
    ##      <int> <lgl>            <chr>                     <int> <chr>           
    ##  1     277 FALSE            Cam                          26 Carolina Hurric…
    ##  2     310 FALSE            Arturs                       26 Carolina Hurric…
    ##  3     336 FALSE            Tom                          26 Carolina Hurric…
    ##  4     363 FALSE            Richard                      26 Carolina Hurric…
    ##  5     369 FALSE            Sean                         26 Carolina Hurric…
    ##  6     411 FALSE            Mark                         26 Carolina Hurric…
    ##  7     425 FALSE            John                         26 Carolina Hurric…
    ##  8     430 FALSE            Mario                        26 Carolina Hurric…
    ##  9     470 FALSE            Pat                          26 Carolina Hurric…
    ## 10     490 FALSE            Mike                         26 Carolina Hurric…
    ## # … with 28 more rows, and 26 more variables: data.gameTypeId <int>,
    ## #   data.gamesPlayed <int>, data.lastName <chr>, data.losses <int>,
    ## #   data.mostGoalsAgainstDates <chr>, data.mostGoalsAgainstOneGame <int>,
    ## #   data.mostSavesDates <chr>, data.mostSavesOneGame <int>,
    ## #   data.mostShotsAgainstDates <chr>, data.mostShotsAgainstOneGame <int>,
    ## #   data.mostShutoutsOneSeason <int>, data.mostShutoutsSeasonIds <chr>,
    ## #   data.mostWinsOneSeason <int>, data.mostWinsSeasonIds <chr>,
    ## #   data.overtimeLosses <int>, data.playerId <int>, data.positionCode <chr>,
    ## #   data.rookieGamesPlayed <int>, data.rookieShutouts <int>,
…
